Final_Project
…
Code

income_summary

# A tibble: 22 × 3
   Income                                           Telehealth Count
   <fct>                                            <fct>      <int>
 1 Missing data (Not Ascertained)                   Yes          151
 2 Missing data (Not Ascertained)                   No           226
 3 Missing data (Web partial - Question Never Seen) Yes          108
 4 Missing data (Web partial - Question Never Seen) No           130
 5 $0 to $9,999                                     Yes          143
 6 $0 to $9,999                                     No           228
 7 $10,000 to $14,999                               Yes          137
 8 $10,000 to $14,999                               No           157
 9 $15,000 to $19,999                               Yes           88
10 $15,000 to $19,999                               No           170
# ℹ 12 more rows
…
